…
``` r
get_cheese_page <- function(letter, pages){
 lnks <- scrape(session, query=list(per_page=100,i=letter,page=pages)) %>% 
    html_nodes("h3 a")
tibble(name=lnks %>% html_text(),
       link=lnks %>% html_attr("href"))
}

df <- pages_df %>% pmap_df(get_cheese_page)
df
#> # A tibble: 518 × 2
#>    name                    link                     
#>    <chr>                   <chr>                    
#>  1 Abbaye de Belloc        /abbaye-de-belloc/       
#>  2 Abbaye de Belval        /abbaye-de-belval/       
#>  3 Abbaye de Citeaux       /abbaye-de-citeaux/      
#>  4 Abbaye de Tamié         /tamie/                  
#>  5 Abbaye de Timadeuc      /abbaye-de-timadeuc/     
#>  6 Abbaye du Mont des Cats /abbaye-du-mont-des-cats/
#>  7 Abbot’s Gold            /abbots-gold/            
#>  8 Abertam                 /abertam/                
#>  9 Abondance               /abondance/              
#> 10 Acapella                /acapella/               
#> # … with 508 more rows
```
…
